Graphic Design with ggplot2
…
class(g)

[1] "gg"     "ggplot"

Inspect a ggplot Object

g$data

# A tibble: 1,454 × 14
   date       day_night year  month season count is_work…¹ is_we…² is_ho…³  temp
   <date>     <chr>     <fct> <fct> <fct>  <int> <lgl>     <lgl>   <lgl>   <dbl>
 1 2015-01-04 day       2015  1     winter  6830 FALSE     TRUE    FALSE    2.17
 2 2015-01-04 night     2015  1     winter  2404 FALSE     TRUE    FALSE    2.79
 3 2015-01-05 day       2015  1     winter 14763 TRUE      FALSE   FALSE    8.96
 4 2015-01-05 night     2015  1     winter  5609 TRUE      FALSE   FALSE    7.12
 5 2015-01-06 day       2015  1     winter 14501 TRUE      FALSE   FALSE    9   
 6 2015-01-06 night     2015  1     winter  6112 TRUE      FALSE   FALSE    6.71
 7 2015-01-07 day       2015  1     winter 16358 TRUE      FALSE   FALSE    8.17
 8 2015-01-07 night     2015  1     winter  4706 TRUE      FALSE   FALSE    6.68
 9 2015-01-08 day       2015  1     winter  9971 TRUE      FALSE   FALSE    9.46
10 2015-01-08 night     2015  1     winter  5630 TRUE      FALSE   FALSE   10.0 
# … with 1,444 more rows, 4 more variables: temp_feel <dbl>, humidity <dbl>,
#   wind_speed <dbl>, weather_type <chr>, and abbreviated variable names
#   ¹​is_workday, ²​is_weekend, ³​is_holiday
# ℹ Use `print(n = ...)` to see more rows, and `colnames()` to see all variable names
…
