…
## Inspect a ggplot Object


::: {.cell hash='02_concepts_pt1_cache/revealjs/ggplot-object-data_d59f14cdb4f90b5cf9e7ead0fb5a2c01'}

```{.r .cell-code}
g$data
```

::: {.cell-output .cell-output-stdout}
```
# A tibble: 1,454 x 14
   date       day_night year  month season count is_workday is_weekend
   <date>     <chr>     <fct> <fct> <fct>  <int> <lgl>      <lgl>     
 1 2015-01-04 day       2015  1     winter  6830 FALSE      TRUE      
 2 2015-01-04 night     2015  1     winter  2404 FALSE      TRUE      
 3 2015-01-05 day       2015  1     winter 14763 TRUE       FALSE     
 4 2015-01-05 night     2015  1     winter  5609 TRUE       FALSE     
 5 2015-01-06 day       2015  1     winter 14501 TRUE       FALSE     
 6 2015-01-06 night     2015  1     winter  6112 TRUE       FALSE     
 7 2015-01-07 day       2015  1     winter 16358 TRUE       FALSE     
 8 2015-01-07 night     2015  1     winter  4706 TRUE       FALSE     
 9 2015-01-08 day       2015  1     winter  9971 TRUE       FALSE     
10 2015-01-08 night     2015  1     winter  5630 TRUE       FALSE     
# ... with 1,444 more rows, and 6 more variables: is_holiday <lgl>, temp <dbl>,
#   temp_feel <dbl>, humidity <dbl>, wind_speed <dbl>, weather_type <chr>
```
…
